[{
  "id": 1,
  "fecha": "5/18/2019",
  "importe": 36,
  "latitud": 29.689847,
  "longitud": 121.28259
}, {
  "id": 2,
  "fecha": "9/17/2019",
  "importe": 84,
  "latitud": 39.8286146,
  "longitud": 69.5320824
}, {
  "id": 3,
  "fecha": "9/30/2019",
  "importe": 39,
  "latitud": 40.172301,
  "longitud": 117.226961
}, {
  "id": 4,
  "fecha": "4/8/2019",
  "importe": 54,
  "latitud": 10.5083266,
  "longitud": 106.8635004
}, {
  "id": 5,
  "fecha": "3/28/2019",
  "importe": 82,
  "latitud": 40.5555236,
  "longitud": 22.4712129
}, {
  "id": 6,
  "fecha": "8/7/2019",
  "importe": 35,
  "latitud": 40.3472281,
  "longitud": 19.982437
}, {
  "id": 7,
  "fecha": "7/28/2019",
  "importe": 63,
  "latitud": 59.4018083,
  "longitud": 17.8046531
}, {
  "id": 8,
  "fecha": "8/9/2019",
  "importe": 74,
  "latitud": 38.6559826,
  "longitud": -9.0096184
}, {
  "id": 9,
  "fecha": "3/22/2019",
  "importe": 94,
  "latitud": 38.7136413,
  "longitud": -9.3736528
}, {
  "id": 10,
  "fecha": "6/30/2019",
  "importe": 11,
  "latitud": -10.8618754,
  "longitud": 122.9276532
}]
